control_system/build/control_system.vcd
$date
    Mon Jun  3 14:26:34 2019
$end

$version
    2.1
$end

$timescale
      1 ps
$end

$scope module SystemC_AMS $end

$var real 1 !  iref $end
$var real 1 "  imeas $end
$var real 1 #  c $end
$var real 1 $  vrdv $end

$upscope $end

$enddefinitions $end


#0
r0.000000000000000 !
r0.000000000000000 "
r0.000000000000000 #
r0.000000000000000 $

#10000000
r0.000000000000000 !
r0.000000000000000 "
r0.000000000000000 #
r0.2000000000000000 $

#20000000
r0.000000000000000 !
r0.001883771983309116 "
r-0.0002512879586590248 #
r0.4000000000000000 $

#30000000
r0.000000000000000 !
r0.004709134148992825 "
r-0.0006284171585929403 #
r0.6000000000000000 $

#40000000
r0.000000000000000 !
r0.009417085246669872 "
r-0.001257031548158075 #
r0.8000000000000000 $

#50000000
r0.000000000000000 !
r0.01600644278232002 "
r-0.002137209960289111 #
r1.000000000000000 $

#60000000
r0.000000000000000 !
r0.02447602500467258 "
r-0.003269031178404096 #
r0.8000000000000000 $

#70000000
r0.000000000000000 !
r0.03294028730287087 "
r-0.004401207058129366 #
r0.5999999999999999 $

#80000000
r0.000000000000000 !
r0.03951486941660297 "
r-0.005282370498388271 #
r0.3999999999999999 $

#90000000
r0.000000000000000 !
r0.04420095829405517 "
r-0.005912442369301732 #
r0.2000000000000000 $

#100000000
r0.000000000000000 !
r0.04699974013786638 "
r-0.006291343590693813 #
r0.000000000000000 $

#110000000
r0.000000000000000 !
r0.04791240040559654 "
r-0.006418995132060523 #
r0.000000000000000 $

#120000000
r0.000000000000000 !
r0.04788230561112905 "
r-0.006421001451691690 #
r0.000000000000000 $

#130000000
r0.000000000000000 !
r0.04785222971983999 "
r-0.006423006511110961 #
r0.000000000000000 $

#140000000
r0.000000000000000 !
r0.04782217271985587 "
r-0.006425010311109902 #
r0.000000000000000 $

#150000000
r0.000000000000000 !
r0.04779213459931067 "
r-0.006427012852479581 #
r0.000000000000000 $

#160000000
r0.000000000000000 !
r0.04776211534634581 "
r-0.006429014136010571 #
r0.000000000000000 $

#170000000
r0.000000000000000 !
r0.04773211494911016 "
r-0.006431014162492946 #
r0.000000000000000 $

#180000000
r0.000000000000000 !
r0.04770213339576003 "
r-0.006433012932716284 #
r0.000000000000000 $

#190000000
r0.000000000000000 !
r0.04767217067445920 "
r-0.006435010447469670 #
r0.000000000000000 $

#200000000
r0.000000000000000 !
r0.04764222677337885 "
r-0.006437006707541694 #
r0.000000000000000 $

#210000000
r0.000000000000000 !
r0.04761230168069760 "
r-0.006439001713720444 #
r0.000000000000000 $

#220000000
r0.000000000000000 !
r0.04758239538460149 "
r-0.006440995466793517 #
r0.000000000000000 $

#230000000
r0.000000000000000 !
r0.04755250787328399 "
r-0.006442987967548015 #
r0.000000000000000 $

#240000000
r0.000000000000000 !
r0.04752263913494598 "
r-0.006444979216770549 #
r0.000000000000000 $

#250000000
r0.000000000000000 !
r0.04749278915779577 "
r-0.006446969215247230 #
r0.000000000000000 $

#260000000
r0.000000000000000 !
r0.04746295793004904 "
r-0.006448957963763680 #
r0.000000000000000 $

#270000000
r0.000000000000000 !
r0.04743314543992890 "
r-0.006450945463105023 #
r0.000000000000000 $

#280000000
r0.000000000000000 !
r0.04740335167566585 "
r-0.006452931714055893 #
r0.000000000000000 $

#290000000
r0.000000000000000 !
r0.04737357662549777 "
r-0.006454916717400431 #
r0.000000000000000 $

#300000000
r0.000000000000000 !
r0.04734382027766995 "
r-0.006456900473922283 #
r0.000000000000000 $

#310000000
r0.000000000000000 !
r0.04731408262043506 "
r-0.006458882984404609 #
r0.000000000000000 $

#320000000
r0.000000000000000 !
r0.04728436364205313 "
r-0.006460864249630070 #
r0.000000000000000 $

#330000000
r0.000000000000000 !
r0.04725466333079158 "
r-0.006462844270380839 #
r0.000000000000000 $

#340000000
r0.000000000000000 !
r0.04722498167492521 "
r-0.006464823047438597 #
r0.000000000000000 $

#350000000
r0.000000000000000 !
r0.04719531866273616 "
r-0.006466800581584534 #
r0.000000000000000 $

#360000000
r0.000000000000000 !
r0.04716567428251392 "
r-0.006468776873599347 #
r0.000000000000000 $

#370000000
r0.000000000000000 !
r0.04713604852255539 "
r-0.006470751924263250 #
r0.000000000000000 $

#380000000
r0.000000000000000 !
r0.04710644137116479 "
r-0.006472725734355957 #
r0.000000000000000 $

#390000000
r0.000000000000000 !
r0.04707685281665364 "
r-0.006474698304656698 #
r0.000000000000000 $

#400000000
r0.000000000000000 !
r0.04704728284734088 "
r-0.006476669635944213 #
r0.000000000000000 $

#410000000
r0.000000000000000 !
r0.04701773145155275 "
r-0.006478639728996753 #
r0.000000000000000 $

#420000000
r0.000000000000000 !
r0.04698819861762282 "
r-0.006480608584592079 #
r0.000000000000000 $

#430000000
r0.000000000000000 !
r0.04695868433389200 "
r-0.006482576203507467 #
r0.000000000000000 $

#440000000
r0.000000000000000 !
r0.04692918858870852 "
r-0.006484542586519699 #
r0.000000000000000 $

#450000000
r0.000000000000000 !
r0.04689971137042792 "
r-0.006486507734405074 #
r0.000000000000000 $

#460000000
r0.000000000000000 !
r0.04687025266741306 "
r-0.006488471647939397 #
r0.000000000000000 $

#470000000
r0.000000000000000 !
r0.04684081246803410 "
r-0.006490434327897997 #
r0.000000000000000 $

#480000000
r0.000000000000000 !
r0.04681139076066852 "
r-0.006492395775055702 #
r0.000000000000000 $

#490000000
r0.000000000000000 !
r0.04678198753370109 "
r-0.006494355990186862 #
r0.000000000000000 $

#500000000
r0.000000000000000 !
r0.04675260277552389 "
r-0.006496314974065342 #
r0.000000000000000 $

#510000000
r0.000000000000000 !
r0.04672323647453627 "
r-0.006498272727464513 #
r0.000000000000000 $

#520000000
r0.000000000000000 !
r0.04669388861914488 "
r-0.006500229251157272 #
r0.000000000000000 $

#530000000
r0.000000000000000 !
r0.04666455919776366 "
r-0.006502184545916018 #
r0.000000000000000 $

#540000000
r0.000000000000000 !
r0.04663524819881382 "
r-0.006504138612512676 #
r0.000000000000000 $

#550000000
r0.000000000000000 !
r0.04660595561072383 "
r-0.006506091451718675 #
r0.000000000000000 $

#560000000
r0.000000000000000 !
r0.04657668142192944 "
r-0.006508043064304968 #
r0.000000000000000 $

#570000000
r0.000000000000000 !
r0.04654742562087368 "
r-0.006509993451042021 #
r0.000000000000000 $

#580000000
r0.000000000000000 !
r0.04651818819600678 "
r-0.006511942612699814 #
r0.000000000000000 $

#590000000
r0.000000000000000 !
r0.04648896913578630 "
r-0.006513890550047847 #
r0.000000000000000 $

#600000000
r0.000000000000000 !
r0.04645976842867701 "
r-0.006515837263855133 #
r0.000000000000000 $

#610000000
r0.000000000000000 !
r0.04643058606315093 "
r-0.006517782754890207 #
r0.000000000000000 $

#620000000
r0.000000000000000 !
r0.04640142202768732 "
r-0.006519727023921115 #
r0.000000000000000 $

#630000000
r0.000000000000000 !
r0.04637227631077267 "
r-0.006521670071715426 #
r0.000000000000000 $

#640000000
r0.000000000000000 !
r0.04634314890090073 "
r-0.006523611899040222 #
r0.000000000000000 $

#650000000
r0.000000000000000 !
r0.04631403978657245 "
r-0.006525552506662108 #
r0.000000000000000 $

#660000000
r0.000000000000000 !
r0.04628494895629599 "
r-0.006527491895347202 #
r0.000000000000000 $

#670000000
r0.000000000000000 !
r0.04625587639858678 "
r-0.006529430065861148 #
r0.000000000000000 $

#680000000
r0.000000000000000 !
r0.04622682210196742 "
r-0.006531367018969104 #
r0.000000000000000 $

#690000000
r0.000000000000000 !
r0.04619778605496774 "
r-0.006533302755435748 #
r0.000000000000000 $

#700000000
r0.000000000000000 !
r0.04616876824612478 "
r-0.006535237276025281 #
r0.000000000000000 $

#710000000
r0.000000000000000 !
r0.04613976866398274 "
r-0.006537170581501417 #
r0.000000000000000 $

#720000000
r0.000000000000000 !
r0.04611078729709304 "
r-0.006539102672627395 #
r0.000000000000000 $

#730000000
r0.000000000000000 !
r0.04608182413401431 "
r-0.006541033550165975 #
r0.000000000000000 $

#740000000
r0.000000000000000 !
r0.04605287916331236 "
r-0.006542963214879439 #
r0.000000000000000 $

#750000000
r0.000000000000000 !
r0.04602395237356016 "
r-0.006544891667529587 #
r0.000000000000000 $

#760000000
r0.000000000000000 !
r0.04599504375333786 "
r-0.006546818908877740 #
r0.000000000000000 $

#770000000
r0.000000000000000 !
r0.04596615329123281 "
r-0.006548744939684744 #
r0.000000000000000 $

#780000000
r0.000000000000000 !
r0.04593728097583950 "
r-0.006550669760710964 #
r0.000000000000000 $

#790000000
r0.000000000000000 !
r0.04590842679575959 "
r-0.006552593372716290 #
r0.000000000000000 $

#800000000
r0.000000000000000 !
r0.04587959073960193 "
r-0.006554515776460135 #
r0.000000000000000 $

#810000000
r0.000000000000000 !
r0.04585077279598248 "
r-0.006556436972701432 #
r0.000000000000000 $

#820000000
r0.000000000000000 !
r0.04582197295352437 "
r-0.006558356962198639 #
r0.000000000000000 $

#830000000
r0.000000000000000 !
r0.04579319120085789 "
r-0.006560275745709738 #
r0.000000000000000 $

#840000000
r0.000000000000000 !
r0.04576442752662045 "
r-0.006562193323992234 #
r0.000000000000000 $

#850000000
r0.000000000000000 !
r0.04573568191945661 "
r-0.006564109697803158 #
r0.000000000000000 $

#860000000
r0.000000000000000 !
r0.04570695436801803 "
r-0.006566024867899060 #
r0.000000000000000 $

#870000000
r0.000000000000000 !
r0.04567824486096357 "
r-0.006567938835036024 #
r0.000000000000000 $

#880000000
r0.000000000000000 !
r0.04564955338695915 "
r-0.006569851599969651 #
r0.000000000000000 $

#890000000
r0.000000000000000 !
r0.04562087993467782 "
r-0.006571763163455072 #
r0.000000000000000 $

#900000000
r0.000000000000000 !
r0.04559222449279977 "
r-0.006573673526246942 #
r0.000000000000000 $

#910000000
r0.000000000000000 !
r0.04556358705001227 "
r-0.006575582689099441 #
r0.000000000000000 $

#920000000
r0.000000000000000 !
r0.04553496759500973 "
r-0.006577490652766277 #
r0.000000000000000 $

#930000000
r0.000000000000000 !
r0.04550636611649363 "
r-0.006579397418000685 #
r0.000000000000000 $

#940000000
r0.000000000000000 !
r0.04547778260317254 "
r-0.006581302985555423 #
r0.000000000000000 $

#950000000
r0.000000000000000 !
r0.04544921704376216 "
r-0.006583207356182780 #
r0.000000000000000 $

#960000000
r0.000000000000000 !
r0.04542066942698524 "
r-0.006585110530634573 #
r0.000000000000000 $

#970000000
r0.000000000000000 !
r0.04539213974157165 "
r-0.006587012509662143 #
r0.000000000000000 $

#980000000
r0.000000000000000 !
r0.04536362797625832 "
r-0.006588913294016363 #
r0.000000000000000 $

#990000000
r0.000000000000000 !
r0.04533513411978927 "
r-0.006590812884447636 #
r0.000000000000000 $

#1000000000
r0.000000000000000 !
r0.04530665816091554 "
r-0.006592711281705885 #
r0.000000000000000 $

#1010000000
r1.000000000000000 !
r0.04527820008839529 "
r0.1268015566998646 #
r0.000000000000000 $

#1020000000
r1.000000000000000 !
r0.04524975989099371 "
r0.1269253243928481 #
r0.000000000000000 $

#1030000000
r1.000000000000000 !
r0.04522133755748307 "
r0.1270490932767576 #
r0.000000000000000 $

#1040000000
r1.000000000000000 !
r0.04519293307664268 "
r0.1271728633508452 #
r0.000000000000000 $

#1050000000
r1.000000000000000 !
r0.04516454643725890 "
r0.1272966346143632 #
r0.000000000000000 $

#1060000000
r1.000000000000000 !
r0.04513617762812513 "
r0.1274204070665645 #
r0.000000000000000 $

#1070000000
r1.000000000000000 !
r0.04510782663804182 "
r0.1275441807067025 #
r0.000000000000000 $

#1080000000
r1.000000000000000 !
r0.04507949345581644 "
r0.1276679555340311 #
r0.000000000000000 $

#1090000000
r1.000000000000000 !
r0.04505117807026350 "
r0.1277917315478045 #
r0.000000000000000 $

#1100000000
r1.000000000000000 !
r0.04502288047020452 "
r0.1279155087472775 #
r0.000000000000000 $

#1110000000
r1.000000000000000 !
r0.04499460064446806 "
r0.1280392871317053 #
r0.000000000000000 $

#1120000000
r1.000000000000000 !
r0.04496633858188970 "
r0.1281630667003437 #
r0.000000000000000 $

#1130000000
r1.000000000000000 !
r0.04493809427131203 "
r0.1282868474524488 #
r0.000000000000000 $

#1140000000
r1.000000000000000 !
r0.04490986770158462 "
r0.1284106293872772 #
r0.000000000000000 $

#1150000000
r1.000000000000000 !
r0.04488165886156408 "
r0.1285344125040861 #
r0.000000000000000 $

#1160000000
r1.000000000000000 !
r0.04485346774011401 "
r0.1286581968021330 #
r0.000000000000000 $

#1170000000
r1.000000000000000 !
r0.04482529432610497 "
r0.1287819822806760 #
r0.000000000000000 $

#1180000000
r1.000000000000000 !
r0.04479713860841456 "
r0.1289057689389736 #
r0.000000000000000 $

#1190000000
r1.000000000000000 !
r0.04476900057592736 "
r0.1290295567762847 #
r0.000000000000000 $

#1200000000
r1.000000000000000 !
r0.04474088021753492 "
r0.1291533457918688 #
r0.000000000000000 $

#1210000000
r1.000000000000000 !
r0.04471277752213575 "
r0.1292771359849858 #
r0.000000000000000 $

#1220000000
r1.000000000000000 !
r0.04468469247863535 "
r0.1294009273548960 #
r0.000000000000000 $

#1230000000
r1.000000000000000 !
r0.04465662507594619 "
r0.1295247199008603 #
r0.000000000000000 $

#1240000000
r1.000000000000000 !
r0.04462857530298771 "
r0.1296485136221400 #
r0.000000000000000 $

#1250000000
r1.000000000000000 !
r0.04460054314868630 "
r0.1297723085179968 #
r0.000000000000000 $

#1260000000
r1.000000000000000 !
r0.04457252860197531 "
r0.1298961045876930 #
r0.000000000000000 $

#1270000000
r1.000000000000000 !
r0.04454453165179505 "
r0.1300199018304913 #
r0.000000000000000 $

#1280000000
r1.000000000000000 !
r0.04451655228709273 "
r0.1301437002456547 #
r0.000000000000000 $

#1290000000
r1.000000000000000 !
r0.04448859049682257 "
r0.1302674998324470 #
r0.000000000000000 $

#1300000000
r1.000000000000000 !
r0.04446064626994568 "
r0.1303913005901321 #
r0.000000000000000 $

#1310000000
r1.000000000000000 !
r0.04443271959543012 "
r0.1305151025179746 #
r0.000000000000000 $

#1320000000
r1.000000000000000 !
r0.04440481046225089 "
r0.1306389056152396 #
r0.000000000000000 $

#1330000000
r1.000000000000000 !
r0.04437691885938990 "
r0.1307627098811925 #
r0.000000000000000 $

#1340000000
r1.000000000000000 !
r0.04434904477583599 "
r0.1308865153150992 #
r0.000000000000000 $

#1350000000
r1.000000000000000 !
r0.04432118820058491 "
r0.1310103219162260 #
r0.000000000000000 $

#1360000000
r1.000000000000000 !
r0.04429334912263931 "
r0.1311341296838399 #
r0.000000000000000 $

#1370000000
r1.000000000000000 !
r0.04426552753100878 "
r0.1312579386172081 #
r0.000000000000000 $

#1380000000
r1.000000000000000 !
r0.04423772341470979 "
r0.1313817487155984 #
r0.000000000000000 $

#1390000000
r1.000000000000000 !
r0.04420993676276570 "
r0.1315055599782791 #
r0.000000000000000 $

#1400000000
r1.000000000000000 !
r0.04418216756420681 "
r0.1316293724045188 #
r0.000000000000000 $

#1410000000
r1.000000000000000 !
r0.04415441580807024 "
r0.1317531859935866 #
r0.000000000000000 $

#1420000000
r1.000000000000000 !
r0.04412668148340006 "
r0.1318770007447522 #
r0.000000000000000 $

#1430000000
r1.000000000000000 !
r0.04409896457924721 "
r0.1320008166572856 #
r0.000000000000000 $

#1440000000
r1.000000000000000 !
r0.04407126508466946 "
r0.1321246337304573 #
r0.000000000000000 $

#1450000000
r1.000000000000000 !
r0.04404358298873150 "
r0.1322484519635383 #
r0.000000000000000 $

#1460000000
r1.000000000000000 !
r0.04401591828050487 "
r0.1323722713558002 #
r0.000000000000000 $

#1470000000
r1.000000000000000 !
r0.04398827094906800 "
r0.1324960919065146 #
r0.000000000000000 $

#1480000000
r1.000000000000000 !
r0.04396064098350614 "
r0.1326199136149541 #
r0.000000000000000 $

#1490000000
r1.000000000000000 !
r0.04393302837291142 "
r0.1327437364803914 #
r0.000000000000000 $

#1500000000
r1.000000000000000 !
r0.04390543310638283 "
r0.1328675605020997 #
r0.000000000000000 $

#1510000000
r1.000000000000000 !
r0.04387785517302618 "
r0.1329913856793529 #
r0.000000000000000 $

#1520000000
r1.000000000000000 !
r0.04385029456195414 "
r0.1331152120114250 #
r0.000000000000000 $

#1530000000
r1.000000000000000 !
r0.04382275126228621 "
r0.1332390394975907 #
r0.000000000000000 $

#1540000000
r1.000000000000000 !
r0.04379522526314874 "
r0.1333628681371252 #
r0.000000000000000 $

#1550000000
r1.000000000000000 !
r0.04376771655367490 "
r0.1334866979293038 #
r0.000000000000000 $

#1560000000
r1.000000000000000 !
r0.04374022512300468 "
r0.1336105288734027 #
r0.000000000000000 $

#1570000000
r1.000000000000000 !
r0.04371275096028488 "
r0.1337343609686983 #
r0.000000000000000 $

#1580000000
r1.000000000000000 !
r0.04368529405466916 "
r0.1338581942144675 #
r0.000000000000000 $

#1590000000
r1.000000000000000 !
r0.04365785439531798 "
r0.1339820286099877 #
r0.000000000000000 $

#1600000000
r1.000000000000000 !
r0.04363043197139857 "
r0.1341058641545367 #
r0.000000000000000 $

#1610000000
r1.000000000000000 !
r0.04360302677208500 "
r0.1342297008473927 #
r0.000000000000000 $

#1620000000
r1.000000000000000 !
r0.04357563878655811 "
r0.1343535386878345 #
r0.000000000000000 $

#1630000000
r1.000000000000000 !
r0.04354826800400558 "
r0.1344773776751413 #
r0.000000000000000 $

#1640000000
r1.000000000000000 !
r0.04352091441362185 "
r0.1346012178085926 #
r0.000000000000000 $

#1650000000
r1.000000000000000 !
r0.04349357800460815 "
r0.1347250590874686 #
r0.000000000000000 $

#1660000000
r1.000000000000000 !
r0.04346625876617250 "
r0.1348489015110498 #
r0.000000000000000 $

#1670000000
r1.000000000000000 !
r0.04343895668752971 "
r0.1349727450786172 #
r0.000000000000000 $

#1680000000
r1.000000000000000 !
r0.04341167175790134 "
r0.1350965897894523 #
r0.000000000000000 $

#1690000000
r1.000000000000000 !
r0.04338440396651571 "
r0.1352204356428368 #
r0.000000000000000 $

#1700000000
r1.000000000000000 !
r0.04335715330260794 "
r0.1353442826380532 #
r0.000000000000000 $

#1710000000
r1.000000000000000 !
r0.04332991975541990 "
r0.1354681307743843 #
r0.000000000000000 $

#1720000000
r1.000000000000000 !
r0.04330270331420023 "
r0.1355919800511132 #
r0.000000000000000 $

#1730000000
r1.000000000000000 !
r0.04327550396820429 "
r0.1357158304675237 #
r0.000000000000000 $

#1740000000
r1.000000000000000 !
r0.04324832170669422 "
r0.1358396820229000 #
r0.000000000000000 $

#1750000000
r1.000000000000000 !
r0.04322115651893888 "
r0.1359635347165266 #
r0.000000000000000 $

#1760000000
r1.000000000000000 !
r0.04319400839421390 "
r0.1360873885476885 #
r0.000000000000000 $

#1770000000
r1.000000000000000 !
r0.04316687732180161 "
r0.1362112435156713 #
r0.000000000000000 $

#1780000000
r1.000000000000000 !
r0.04313976329099109 "
r0.1363350996197608 #
r0.000000000000000 $

#1790000000
r1.000000000000000 !
r0.04311266629107816 "
r0.1364589568592436 #
r0.000000000000000 $

#1800000000
r1.000000000000000 !
r0.04308558631136534 "
r0.1365828152334063 #
r0.000000000000000 $

#1810000000
r1.000000000000000 !
r0.04305852334116189 "
r0.1367066747415363 #
r0.000000000000000 $

#1820000000
r1.000000000000000 !
r0.04303147736978379 "
r0.1368305353829214 #
r0.000000000000000 $

#1830000000
r1.000000000000000 !
r0.04300444838655369 "
r0.1369543971568496 #
r0.000000000000000 $

#1840000000
r1.000000000000000 !
r0.04297743638080100 "
r0.1370782600626097 #
r0.000000000000000 $

#1850000000
r1.000000000000000 !
r0.04295044134186179 "
r0.1372021240994907 #
r0.000000000000000 $

#1860000000
r1.000000000000000 !
r0.04292346325907885 "
r0.1373259892667821 #
r0.000000000000000 $

#1870000000
r1.000000000000000 !
r0.04289650212180166 "
r0.1374498555637738 #
r0.000000000000000 $

#1880000000
r1.000000000000000 !
r0.04286955791938640 "
r0.1375737229897564 #
r0.000000000000000 $

#1890000000
r1.000000000000000 !
r0.04284263064119591 "
r0.1376975915440206 #
r0.000000000000000 $

#1900000000
r1.000000000000000 !
r0.04281572027659972 "
r0.1378214612258578 #
r0.000000000000000 $

#1910000000
r1.000000000000000 !
r0.04278882681497403 "
r0.1379453320345597 #
r0.000000000000000 $

#1920000000
r1.000000000000000 !
r0.04276195024570176 "
r0.1380692039694185 #
r0.000000000000000 $

#1930000000
r1.000000000000000 !
r0.04273509055817245 "
r0.1381930770297268 #
r0.000000000000000 $

#1940000000
r1.000000000000000 !
r0.04270824774178231 "
r0.1383169512147777 #
r0.000000000000000 $

#1950000000
r1.000000000000000 !
r0.04268142178593424 "
r0.1384408265238647 #
r0.000000000000000 $

#1960000000
r1.000000000000000 !
r0.04265461268003776 "
r0.1385647029562819 #
r0.000000000000000 $

#1970000000
r1.000000000000000 !
r0.04262782041350907 "
r0.1386885805113236 #
r0.000000000000000 $

#1980000000
r1.000000000000000 !
r0.04260104497577100 "
r0.1388124591882846 #
r0.000000000000000 $

#1990000000
r1.000000000000000 !
r0.04257428635625303 "
r0.1389363389864604 #
r0.000000000000000 $

#2000000000
r1.000000000000000 !
r0.04254754454439129 "
r0.1390602199051465 #
r0.000000000000000 $

#2010000000
r1.000000000000000 !
r0.04252081952962850 "
r0.1391841019436392 #
r0.000000000000000 $

#2020000000
r1.000000000000000 !
r0.04249411130141408 "
r0.1393079851012352 #
r0.000000000000000 $

#2030000000
r1.000000000000000 !
r0.04246741984920401 "
r0.1394318693772315 #
r0.000000000000000 $

#2040000000
r1.000000000000000 !
r0.04244074516246096 "
r0.1395557547709255 #
r0.000000000000000 $

#2050000000
r1.000000000000000 !
r0.04241408723065417 "
r0.1396796412816153 #
r0.000000000000000 $

#2060000000
r1.000000000000000 !
r0.04238744604325952 "
r0.1398035289085993 #
r0.000000000000000 $

#2070000000
r1.000000000000000 !
r0.04236082158975948 "
r0.1399274176511762 #
r0.000000000000000 $

#2080000000
r1.000000000000000 !
r0.04233421385964314 "
r0.1400513075086453 #
r0.000000000000000 $

#2090000000
r1.000000000000000 !
r0.04230762284240619 "
r0.1401751984803065 #
r0.000000000000000 $

#2100000000
r1.000000000000000 !
r0.04228104852755091 "
r0.1402990905654597 #
r0.000000000000000 $

#2110000000
r1.000000000000000 !
r0.04225449090458619 "
r0.1404229837634056 #
r0.000000000000000 $

#2120000000
r1.000000000000000 !
r0.04222794996302748 "
r0.1405468780734453 #
r0.000000000000000 $

#2130000000
r1.000000000000000 !
r0.04220142569239684 "
r0.1406707734948802 #
r0.000000000000000 $

#2140000000
r1.000000000000000 !
r0.04217491808222291 "
r0.1407946700270122 #
r0.000000000000000 $

#2150000000
r1.000000000000000 !
r0.04214842712204092 "
r0.1409185676691437 #
r0.000000000000000 $

#2160000000
r1.000000000000000 !
r0.04212195280139265 "
r0.1410424664205774 #
r0.000000000000000 $

#2170000000
r1.000000000000000 !
r0.04209549510982645 "
r0.1411663662806166 #
r0.000000000000000 $

#2180000000
r1.000000000000000 !
r0.04206905403689725 "
r0.1412902672485649 #
r0.000000000000000 $

#2190000000
r1.000000000000000 !
r0.04204262957216652 "
r0.1414141693237264 #
r0.000000000000000 $

#2200000000
r1.000000000000000 !
r0.04201622170520230 "
r0.1415380725054057 #
r0.000000000000000 $

#2210000000
r1.000000000000000 !
r0.04198983042557918 "
r0.1416619767929078 #
r0.000000000000000 $

#2220000000
r1.000000000000000 !
r0.04196345572287831 "
r0.1417858821855379 #
r0.000000000000000 $

#2230000000
r1.000000000000000 !
r0.04193709758668735 "
r0.1419097886826021 #
r0.000000000000000 $

#2240000000
r1.000000000000000 !
r0.04191075600660055 "
r0.1420336962834066 #
r0.000000000000000 $

#2250000000
r1.000000000000000 !
r0.04188443097221867 "
r0.1421576049872581 #
r0.000000000000000 $

#2260000000
r1.000000000000000 !
r0.04185812247314898 "
r0.1422815147934637 #
r0.000000000000000 $

#2270000000
r1.000000000000000 !
r0.04183183049900530 "
r0.1424054257013311 #
r0.000000000000000 $

#2280000000
r1.000000000000000 !
r0.04180555503940800 "
r0.1425293377101682 #
r0.000000000000000 $

#2290000000
r1.000000000000000 !
r0.04177929608398393 "
r0.1426532508192835 #
r0.000000000000000 $

#2300000000
r1.000000000000000 !
r0.04175305362236647 "
r0.1427771650279859 #
r0.000000000000000 $

#2310000000
r1.000000000000000 !
r0.04172682764419552 "
r0.1429010803355847 #
r0.000000000000000 $

#2320000000
r1.000000000000000 !
r0.04170061813911745 "
r0.1430249967413898 #
r0.000000000000000 $

#2330000000
r1.000000000000000 !
r0.04167442509678517 "
r0.1431489142447112 #
r0.000000000000000 $

#2340000000
r1.000000000000000 !
r0.04164824850685810 "
r0.1432728328448597 #
r0.000000000000000 $

#2350000000
r1.000000000000000 !
r0.04162208835900211 "
r0.1433967525411462 #
r0.000000000000000 $

#2360000000
r1.000000000000000 !
r0.04159594464288961 "
r0.1435206733328823 #
r0.000000000000000 $

#2370000000
r1.000000000000000 !
r0.04156981734819947 "
r0.1436445952193799 #
r0.000000000000000 $

#2380000000
r1.000000000000000 !
r0.04154370646461704 "
r0.1437685181999513 #
r0.000000000000000 $

#2390000000
r1.000000000000000 !
r0.04151761198183415 "
r0.1438924422739094 #
r0.000000000000000 $

#2400000000
r1.000000000000000 !
r0.04149153388954913 "
r0.1440163674405673 #
r0.000000000000000 $

#2410000000
r1.000000000000000 !
r0.04146547217746673 "
r0.1441402936992387 #
r0.000000000000000 $

#2420000000
r1.000000000000000 !
r0.04143942683529821 "
r0.1442642210492378 #
r0.000000000000000 $

#2430000000
r1.000000000000000 !
r0.04141339785276129 "
r0.1443881494898789 #
r0.000000000000000 $

#2440000000
r1.000000000000000 !
r0.04138738521958012 "
r0.1445120790204771 #
r0.000000000000000 $

#2450000000
r1.000000000000000 !
r0.04136138892548535 "
r0.1446360096403477 #
r0.000000000000000 $

#2460000000
r1.000000000000000 !
r0.04133540896021402 "
r0.1447599413488065 #
r0.000000000000000 $

#2470000000
r1.000000000000000 !
r0.04130944531350968 "
r0.1448838741451698 #
r0.000000000000000 $

#2480000000
r1.000000000000000 !
r0.04128349797512228 "
r0.1450078080287542 #
r0.000000000000000 $

#2490000000
r1.000000000000000 !
r0.04125756693480823 "
r0.1451317429988769 #
r0.000000000000000 $

#2500000000
r1.000000000000000 !
r0.04123165218233035 "
r0.1452556790548553 #
r0.000000000000000 $

#2510000000
r1.000000000000000 !
r0.04120575370745792 "
r0.1453796161960074 #
r0.000000000000000 $

#2520000000
r1.000000000000000 !
r0.04117987149996662 "
r0.1455035544216516 #
r0.000000000000000 $

#2530000000
r1.000000000000000 !
r0.04115400554963855 "
r0.1456274937311066 #
r0.000000000000000 $

#2540000000
r1.000000000000000 !
r0.04112815584626225 "
r0.1457514341236918 #
r0.000000000000000 $

#2550000000
r1.000000000000000 !
r0.04110232237963268 "
r0.1458753755987267 #
r0.000000000000000 $

#2560000000
r1.000000000000000 !
r0.04107650513955119 "
r0.1459993181555315 #
r0.000000000000000 $

#2570000000
r1.000000000000000 !
r0.04105070411582554 "
r0.1461232617934268 #
r0.000000000000000 $

#2580000000
r1.000000000000000 !
r0.04102491929826989 "
r0.1462472065117333 #
r0.000000000000000 $

#2590000000
r1.000000000000000 !
r0.04099915067670481 "
r0.1463711523097725 #
r0.000000000000000 $

#2600000000
r1.000000000000000 !
r0.04097339824095723 "
r0.1464950991868663 #
r0.000000000000000 $

#2610000000
r1.000000000000000 !
r0.04094766198086052 "
r0.1466190471423368 #
r0.000000000000000 $

#2620000000
r1.000000000000000 !
r0.04092194188625440 "
r0.1467429961755066 #
r0.000000000000000 $

#2630000000
r1.000000000000000 !
r0.04089623794698497 "
r0.1468669462856989 #
r0.000000000000000 $

#2640000000
r1.000000000000000 !
r0.04087055015290474 "
r0.1469908974722371 #
r0.000000000000000 $

#2650000000
r1.000000000000000 !
r0.04084487849387257 "
r0.1471148497344453 #
r0.000000000000000 $

#2660000000
r1.000000000000000 !
r0.04081922295975370 "
r0.1472388030716476 #
r0.000000000000000 $

#2670000000
r1.000000000000000 !
r0.04079358354041972 "
r0.1473627574831689 #
r0.000000000000000 $

#2680000000
r1.000000000000000 !
r0.04076796022574859 "
r0.1474867129683344 #
r0.000000000000000 $

#2690000000
r1.000000000000000 !
r0.04074235300562464 "
r0.1476106695264698 #
r0.000000000000000 $

#2700000000
r1.000000000000000 !
r0.04071676186993854 "
r0.1477346271569009 #
r0.000000000000000 $

#2710000000
r1.000000000000000 !
r0.04069118680858732 "
r0.1478585858589544 #
r0.000000000000000 $

#2720000000
r1.000000000000000 !
r0.04066562781147432 "
r0.1479825456319572 #
r0.000000000000000 $

#2730000000
r1.000000000000000 !
r0.04064008486850929 "
r0.1481065064752364 #
r0.000000000000000 $

#2740000000
r1.000000000000000 !
r0.04061455796960826 "
r0.1482304683881199 #
r0.000000000000000 $

#2750000000
r1.000000000000000 !
r0.04058904710469362 "
r0.1483544313699359 #
r0.000000000000000 $

#2760000000
r1.000000000000000 !
r0.04056355226369408 "
r0.1484783954200128 #
r0.000000000000000 $

#2770000000
r1.000000000000000 !
r0.04053807343654468 "
r0.1486023605376798 #
r0.000000000000000 $

#2780000000
r1.000000000000000 !
r0.04051261061318677 "
r0.1487263267222662 #
r0.000000000000000 $

#2790000000
r1.000000000000000 !
r0.04048716378356804 "
r0.1488502939731018 #
r0.000000000000000 $

#2800000000
r1.000000000000000 !
r0.04046173293764247 "
r0.1489742622895171 #
r0.000000000000000 $

#2810000000
r1.000000000000000 !
r0.04043631806537038 "
r0.1490982316708425 #
r0.000000000000000 $

#2820000000
r1.000000000000000 !
r0.04041091915671838 "
r0.1492222021164094 #
r0.000000000000000 $

#2830000000
r1.000000000000000 !
r0.04038553620165938 "
r0.1493461736255490 #
r0.000000000000000 $

#2840000000
r1.000000000000000 !
r0.04036016919017259 "
r0.1494701461975935 #
r0.000000000000000 $

