alu/build/alu_wave.vcd
$date
     Jun 02, 2019       17:14:07
$end

$version
 SystemC 2.3.2-Accellera --- Jun  1 2019 10:23:07
$end

$timescale
     1 ps
$end

$scope module SystemC $end
$var wire    1  aaaaa  clk       $end
$var wire    1  aaaab  reset       $end
$var wire    3  aaaac  op_sel [2:0]  $end
$var wire   32  aaaad  data1 [31:0]  $end
$var wire   32  aaaae  data2 [31:0]  $end
$var wire   32  aaaaf  acc [31:0]  $end
$var wire    8  aaaag  stat [7:0]  $end
$upscope $end
$enddefinitions  $end

$comment
All initial values are dumped below at time 0 sec = 0 timescale units.
$end

$dumpvars
1aaaaa
0aaaab
b0 aaaac
b0 aaaad
b0 aaaae
b0 aaaaf
b0 aaaag
$end

#5000
0aaaaa

#9900
1aaaab
b10101010101010011001011101010 aaaad
b100101101011001101110010110101 aaaae
b101000001000001000010100000 aaaaf

#10000
1aaaaa

#15000
0aaaaa

#19900
b1 aaaac

#20000
1aaaaa
b110101111111011111111011111111 aaaaf

#25000
0aaaaa

#29900
b10 aaaac

#30000
1aaaaa
b110000111110011110111001011111 aaaaf

#35000
0aaaaa

#39900
b11 aaaac

#40000
1aaaaa
b1010101010101001100101110101 aaaaf

#45000
0aaaaa

#49900
b100 aaaac

#50000
1aaaaa
b101010101010100110010111010100 aaaaf

